Listar modelos LLM disponíveis para análise de conteúdo — ac_qual_list_models • acR
…
tier: categoria ("frontier", "balanced", "fast", "free", "local");

pt_support: suporte estimado ao português ("alto", "medio", "baixo");

acr_string: string pronta para uso em model = ... no acR.

    See also

    ac_qual_recommend_model(), ac_qual_code()

    Examples

# Listar todos os modelos do banco interno
ac_qual_list_models()
#> # A tibble: 25 × 9
#>    provider model_id     name  context_k cost_input cost_output tier  pt_support
#>    <chr>    <chr>        <chr>     <dbl>      <dbl>       <dbl> <chr> <chr>     
#>  1 groq     groq/llama-… Llam…       128      0.05         0.08 fast  baixo     
#>  2 google   google/gemi… Gemi…      1000      0.075        0.3  fast  medio     
#>  3 openai   openai/gpt-… GPT-…       128      0.1          0.4  fast  medio     
#>  4 google   google/gemi… Gemi…      1000      0.1          0.4  fast  alto      
#>  5 mistral  mistral/mis… Mist…        32      0.1          0.3  fast  medio     
#>  6 groq     groq/gemma2… Gemm…         8      0.2          0.2  fast  medio     
#>  7 deepseek deepseek/de… Deep…        64      0.27         1.1  bala… medio     
#>  8 openai   openai/gpt-… GPT-…       128      0.4          1.6  fast  alto      
#>  9 deepseek deepseek/de… Deep…        64      0.55         2.19 bala… medio     
#> 10 groq     groq/llama-… Llam…       128      0.59         0.79 bala… medio     
#> # ℹ 15 more rows
#> # ℹ 1 more variable: acr_string <chr>
…
