Modelagem de topicos com LDA • acR
…
## 

## ── Corpus acR ──────────────────────────────────────────────────────────────────

## • Documentos: 12

## • Metadados: 0 colunas

## • Idioma: "pt"

## 

## # A tibble: 12 × 2
##   doc_id text                                                               
##   <chr>  <chr>                                                              
## 1 doc_1  Reforma tributaria simplifica impostos e reduz carga para empresas.
## 2 doc_2  IVA dual substitui PIS, COFINS e ICMS no novo modelo fiscal.       
## 3 doc_3  Congresso debate aliquotas e excecoes para setores economicos.     
## 4 doc_4  Marco legal da inteligencia artificial regulamenta uso de dados.   
## 5 doc_5  Privacidade e seguranca de dados sao prioridades na nova lei.      
## 6 doc_6  Algoritmos de IA precisam de transparencia e auditoria publica.    
## # ℹ 6 more rows
…
## 

## ── Corpus acR ──────────────────────────────────────────────────────────────────

## • Documentos: 12

## • Metadados: 0 colunas

## • Idioma: "pt"

## 

## # A tibble: 12 × 2
##   doc_id text                                                              
##   <chr>  <chr>                                                             
## 1 doc_1  reforma tributaria simplifica impostos e reduz carga para empresas
## 2 doc_2  iva dual substitui pis cofins e icms no novo modelo fiscal        
## 3 doc_3  congresso debate aliquotas e excecoes para setores economicos     
## 4 doc_4  marco legal da inteligencia artificial regulamenta uso de dados   
## 5 doc_5  privacidade e seguranca de dados sao prioridades na nova lei      
## 6 doc_6  algoritmos de ia precisam de transparencia e auditoria publica    
## # ℹ 6 more rows
…
7. Visualizacoes

beta_top <- dplyr::slice_max(dplyr::group_by(beta, topic), beta, n = 20)
print(beta_top)

## # A tibble: 101 × 3
## # Groups:   topic [4]
##    topic term         beta
##    <int> <chr>       <dbl>
##  1     1 e          0.118 
##  2     1 para       0.118 
##  3     1 carga      0.0588
##  4     1 empresas   0.0588
##  5     1 impostos   0.0588
##  6     1 reduz      0.0588
##  7     1 reforma    0.0588
##  8     1 simplifica 0.0588
##  9     1 tributaria 0.0588
## 10     1 aliquotas  0.0588
## # ℹ 91 more rows
…
