Analise quantitativa de texto • acR
…
corpus <- ac_corpus(meta)
corpus
#> 
#> ── Corpus acR ──────────────────────────────────────────────────────────────────
#> • Documentos: 12
#> • Metadados: 1 coluna
#> • Idioma: "pt"
#> 
#> # A tibble: 12 × 3
#>   doc_id text                                                              tema 
#>   <chr>  <chr>                                                             <chr>
#> 1 doc_1  O governo anunciou nova politica fiscal para reduzir o deficit p… fisc…
#> 2 doc_2  A oposicao critica o aumento dos gastos e da divida publica no o… fisc…
#> 3 doc_3  Parlamentares debatem a reforma tributaria e o imposto de renda … trib…
#> 4 doc_4  O presidente vetou o projeto que ampliava beneficios sociais par… soci…
#> 5 doc_5  O Senado aprovou o marco legal para investimentos em infraestrut… infr…
#> 6 doc_6  Deputados votam pela reducao da carga tributaria para pequenas e… trib…
#> # ℹ 6 more rows
…
corpus_limpo <- ac_clean(
  corpus,
  remove_stopwords = "pt",
  extra_stopwords  = c("pra", "pro")  # opcional: coloquiais
)
corpus_limpo
#> 
#> ── Corpus acR ──────────────────────────────────────────────────────────────────
#> • Documentos: 12
#> • Metadados: 1 coluna
#> • Idioma: "pt"
#> 
#> # A tibble: 12 × 3
#>   doc_id text                                                              tema 
#>   <chr>  <chr>                                                             <chr>
#> 1 doc_1  governo anunciou nova politica fiscal reduzir deficit publico     fisc…
#> 2 doc_2  oposicao critica aumento gastos divida publica orcamento          fisc…
#> 3 doc_3  parlamentares debatem reforma tributaria imposto renda familias   trib…
#> 4 doc_4  presidente vetou projeto ampliava beneficios sociais pobres       soci…
#> 5 doc_5  senado aprovou marco legal investimentos infraestrutura logistica infr…
#> 6 doc_6  deputados votam reducao carga tributaria pequenas empresas        trib…
#> # ℹ 6 more rows
…
4. Frequência

Contagem de ocorrências por documento e depois agregação.
ac_count() já retorna no formato tidy pronto para
pipeline com dplyr e ggplot2.

contagem <- ac_count(corpus_limpo)
contagem
#> # A tibble: 88 × 3
#>    doc_id token        n
#>    <chr>  <chr>    <int>
#>  1 doc_1  anunciou     1
#>  2 doc_1  deficit      1
#>  3 doc_1  fiscal       1
#>  4 doc_1  governo      1
#>  5 doc_1  nova         1
#>  6 doc_1  politica     1
#>  7 doc_1  publico      1
#>  8 doc_1  reduzir      1
#>  9 doc_10 amplia       1
#> 10 doc_10 aprovou      1
#> # ℹ 78 more rows
…
