…
corpus <- ac_corpus(df)
#> New names:
#> • `doc_id` -> `doc_id...1`
#> • `doc_id` -> `doc_id...3`
corpus
#> 
#> ── Corpus acR ──────────────────────────────────────────────────────────────────
#> • Documentos: 12
#> • Metadados: 2 colunas
#> • Idioma: "pt"
#> # A tibble: 12 × 4
#>   doc_id...1 text                                             doc_id...3 partido
#>   <chr>      <chr>                                            <chr>      <chr>  
#> 1 doc_1      Apoio integralmente esta reforma que simplifica… d01        PT     
#> 2 doc_2      Sou favoravel a proposta: reduz distorcoes hist… d02        PSD    
#> 3 doc_3      Voto sim com plena adesao: precisamos moderniza… d03        PL     
#> 4 doc_4      Aprovo a reforma tributaria, e uma conquista pa… d04        MDB    
#> 5 doc_5      Rejeito esta proposta, e um retrocesso para os … d05        PSOL   
#> 6 doc_6      Voto contra: a reforma prejudica os mais pobres… d06        PT     
#> # ℹ 6 more rows
```
…
