Agrupamento não supervisionado de documentos • acR
…
corpus <- ac_corpus(df, text = texto, docid = id)
corpus
#> # A tibble: 16 × 3
#>   doc_id text                                                          tema_real
#>   <chr>  <chr>                                                         <chr>    
#> 1 d01    democracia participacao voto liberdade cidadania popular      democrac…
#> 2 d02    cidadania direitos participacao democracia representacao pol… democrac…
#> 3 d03    voto direitos liberdade cidadania soberania popular           democrac…
#> 4 d04    democracia voto participacao popular assembleia direta        democrac…
#> 5 d05    participacao social democracia direitos coletivos comunidade  democrac…
#> 6 d06    cidadania voto democracia representacao plural minorias       democrac…
#> # ℹ 10 more rows
…
