Introdução ao acR: pipeline integrado de análise de conteúdo • acR
…
2. Frequências e termos mais salientes

# Frequência de unigramas no corpus inteiro
freq <- ac_count(corp)
ac_top_terms(freq, n = 8)
#> # A tibble: 34 × 3
#>    doc_id token     n
#>    <chr>  <chr> <int>
#>  1 d4     do        2
#>  2 d3     A         1
#>  3 d1     CCJ.      1
#>  4 d1     O         1
#>  5 d2     O         1
#>  6 d4     O         1
#>  7 d2     PL        1
#>  8 d4     PL        1
#>  9 d1     PT        1
#> 10 d3     PT        1
#> # ℹ 24 more rows

# Frequência por partido
freq_partido <- ac_count(corp, by = "partido")
ac_top_terms(freq_partido, n = 5, by = "partido")
#> # A tibble: 27 × 3
#>    partido token          n
#>    <chr>   <chr>      <int>
#>  1 PL      do             3
#>  2 PL      O              2
#>  3 PL      PL             2
#>  4 PL      a              2
#>  5 PL      criticou       1
#>  6 PL      deputado       1
#>  7 PL      novamente.     1
#>  8 PL      obstruiu       1
#>  9 PL      projeto.       1
#> 10 PL      reforma        1
#> # ℹ 17 more rows
…
