Modelagem de topicos com LDA • acR
…
corpus <- ac_corpus(
  data.frame(
    text = textos,
    tema = rep(c("tributario","tecnologia","habitacao","educacao"), each = 8L),
    stringsAsFactors = FALSE
  )
)
corpus
#> 
#> ── Corpus acR ──────────────────────────────────────────────────────────────────
#> • Documentos: 32
#> • Metadados: 1 coluna
#> • Idioma: "pt"
#> 
#> # A tibble: 32 × 3
#>   doc_id text                                                              tema 
#>   <chr>  <chr>                                                             <chr>
#> 1 doc_1  A reforma tributaria simplifica o sistema de impostos e reduz a … trib…
#> 2 doc_2  O IVA dual substitui PIS, COFINS e ICMS no novo modelo de arreca… trib…
#> 3 doc_3  Deputados debatem aliquotas e excecoes tributarias para setores … trib…
#> 4 doc_4  A reforma tributaria unifica impostos indiretos e simplifica obr… trib…
#> 5 doc_5  Empresarios criticam a alta carga tributaria brasileira sobre o … trib…
#> 6 doc_6  O relator propoe aliquotas diferenciadas para produtos essenciai… trib…
#> # ℹ 26 more rows
…
corpus_limpo <- ac_clean(
  corpus,
  remove_stopwords = "pt",
  extra_stopwords  = c("brasil", "pais", "sobre", "novo", "nova")
)
corpus_limpo
#> 
#> ── Corpus acR ──────────────────────────────────────────────────────────────────
#> • Documentos: 32
#> • Metadados: 1 coluna
#> • Idioma: "pt"
#> 
#> # A tibble: 32 × 3
#>   doc_id text                                                              tema 
#>   <chr>  <chr>                                                             <chr>
#> 1 doc_1  reforma tributaria simplifica sistema impostos reduz carga fisca… trib…
#> 2 doc_2  iva dual substitui pis cofins icms modelo arrecadacao federal     trib…
#> 3 doc_3  deputados debatem aliquotas excecoes tributarias setores economi… trib…
#> 4 doc_4  reforma tributaria unifica impostos indiretos simplifica obrigac… trib…
#> 5 doc_5  empresarios criticam alta carga tributaria brasileira consumo po… trib…
#> 6 doc_6  relator propoe aliquotas diferenciadas produtos essenciais iva    trib…
#> # ℹ 26 more rows
…
