Codificacao qualitativa com LLMs • acR
…
Exemplo aplicado: discurso legislativo

Classificamos pronunciamentos parlamentares em relacao a uma proposta
de reforma tributaria. Os blocos com eval = TRUE rodam
automaticamente no build. Os blocos com eval = FALSE
requerem sua chave de API.

ac_qual_list_models() — listar modelos disponiveis

library(acR)
modelos <- ac_qual_list_models()
print(modelos)

## # A tibble: 25 × 9
##    provider model_id     name  context_k cost_input cost_output tier  pt_support
##    <chr>    <chr>        <chr>     <dbl>      <dbl>       <dbl> <chr> <chr>     
##  1 groq     groq/llama-… Llam…       128      0.05         0.08 fast  baixo     
##  2 google   google/gemi… Gemi…      1000      0.075        0.3  fast  medio     
##  3 openai   openai/gpt-… GPT-…       128      0.1          0.4  fast  medio     
##  4 google   google/gemi… Gemi…      1000      0.1          0.4  fast  alto      
##  5 mistral  mistral/mis… Mist…        32      0.1          0.3  fast  medio     
##  6 groq     groq/gemma2… Gemm…         8      0.2          0.2  fast  medio     
##  7 deepseek deepseek/de… Deep…        64      0.27         1.1  bala… medio     
##  8 openai   openai/gpt-… GPT-…       128      0.4          1.6  fast  alto      
##  9 deepseek deepseek/de… Deep…        64      0.55         2.19 bala… medio     
## 10 groq     groq/llama-… Llam…       128      0.59         0.79 bala… medio     
## # ℹ 15 more rows
## # ℹ 1 more variable: acr_string <chr>
…
