Analise quantitativa de texto • acR
…
  "Inflacao acima da meta preocupa economistas e mercado financeiro."
)
corpus <- ac_corpus(data.frame(
  text = textos,
  tema = c("fiscal","fiscal","tributario","social","infraestrutura","tributario","monetario","monetario"),
  stringsAsFactors = FALSE
))
print(corpus)
#> 
#> ── Corpus acR ──────────────────────────────────────────────────────────────────
#> • Documentos: 8
#> • Metadados: 1 coluna
#> • Idioma: "pt"
#> 
#> # A tibble: 8 × 3
#>   doc_id text                                                            tema   
#>   <chr>  <chr>                                                           <chr>  
#> 1 doc_1  O governo anunciou nova politica fiscal para reduzir o deficit. fiscal 
#> 2 doc_2  A oposicao critica o aumento dos gastos publicos no orcamento.  fiscal 
#> 3 doc_3  Parlamentares debatem reforma tributaria e imposto de renda.    tribut…
#> 4 doc_4  O presidente vetou o projeto que ampliava beneficios sociais.   social 
#> 5 doc_5  Senado aprova marco legal para investimentos em infraestrutura. infrae…
#> 6 doc_6  Deputados votam pela reducao da carga tributaria para empresas. tribut…
#> # ℹ 2 more rows

2. Limpeza

corpus_limpo <- ac_clean(corpus)
print(corpus_limpo)
#> 
#> ── Corpus acR ──────────────────────────────────────────────────────────────────
#> • Documentos: 8
#> • Metadados: 1 coluna
#> • Idioma: "pt"
#> 
#> # A tibble: 8 × 3
#>   doc_id text                                                           tema    
#>   <chr>  <chr>                                                          <chr>   
#> 1 doc_1  o governo anunciou nova politica fiscal para reduzir o deficit fiscal  
#> 2 doc_2  a oposicao critica o aumento dos gastos publicos no orcamento  fiscal  
#> 3 doc_3  parlamentares debatem reforma tributaria e imposto de renda    tributa…
#> 4 doc_4  o presidente vetou o projeto que ampliava beneficios sociais   social  
#> 5 doc_5  senado aprova marco legal para investimentos em infraestrutura infraes…
#> 6 doc_6  deputados votam pela reducao da carga tributaria para empresas tributa…
#> # ℹ 2 more rows
…
4. Frequencia

contagem <- ac_count(corpus_limpo)
print(contagem)
#> # A tibble: 71 × 3
#>    doc_id token        n
#>    <chr>  <chr>    <int>
#>  1 doc_1  o            2
#>  2 doc_4  o            2
#>  3 doc_1  anunciou     1
#>  4 doc_1  deficit      1
#>  5 doc_1  fiscal       1
#>  6 doc_1  governo      1
#>  7 doc_1  nova         1
#>  8 doc_1  para         1
#>  9 doc_1  politica     1
#> 10 doc_1  reduzir      1
#> # ℹ 61 more rows
…
