…
## 2 · Termos mais frequentes por grupo

``` r

freq_por_grupo <- ac_count(corpus, by = "posicao")
ac_top_terms(freq_por_grupo, n = 5, by = "posicao")
#> # A tibble: 50 × 3
#>    posicao token            n
#>    <chr>   <chr>        <int>
#>  1 contra  o                2
#>  2 contra  Esta             1
#>  3 contra  Somos            1
#>  4 contra  Voto             1
#>  5 contra  a                1
#>  6 contra  apenas           1
#>  7 contra  beneficia        1
#>  8 contra  contra           1
#>  9 contra  contra,          1
#> 10 contra  corporacoes.     1
#> # ℹ 40 more rows
```
…
