Quickstart — acR em 5 minutos • acR
…
2 · Termos mais frequentes por grupo

Removemos stopwords antes de contar — sem isso, “de”, “a”,
“o” dominariam qualquer contagem em português.

corpus <- ac_clean(corpus, remove_stopwords = "pt")
freq_por_grupo <- ac_count(corpus, by = "posicao")
ac_top_terms(freq_por_grupo, n = 5, by = "posicao")
#> # A tibble: 34 × 3
#>    posicao token           n
#>    <chr>   <chr>       <int>
#>  1 contra  contra          2
#>  2 contra  apenas          1
#>  3 contra  beneficia       1
#>  4 contra  corporacoes     1
#>  5 contra  destruir        1
#>  6 contra  grandes         1
#>  7 contra  plenario        1
#>  8 contra  produtivo       1
#>  9 contra  proposta        1
#> 10 contra  reforma         1
#> # ℹ 24 more rows
…
