Analise de sentimento • acR
…
  posicao  = c(rep("favor", 5), rep("contra", 5), rep("neutro", 4)),
  partido  = c("PT","PSD","PL","MDB","PSDB",
               "PSOL","PT","PDT","PSOL","PCdoB",
               "MDB","PSDB","PL","MDB"),
  stringsAsFactors = FALSE
)
corpus <- ac_corpus(df)
corpus
#> 
#> ── Corpus acR ──────────────────────────────────────────────────────────────────
#> • Documentos: 14
#> • Metadados: 2 colunas
#> • Idioma: "pt"
#> 
#> # A tibble: 14 × 4
#>   doc_id text                                                    posicao partido
#>   <chr>  <chr>                                                   <chr>   <chr>  
#> 1 doc_1  Excelente proposta que moderniza o sistema e protege a… favor   PT     
#> 2 doc_2  Aprovamos com convicção esta reforma responsável e nec… favor   PSD    
#> 3 doc_3  Vitória histórica para a economia: reforma corrige dis… favor   PL     
#> 4 doc_4  Reforma equilibrada garante sustentabilidade fiscal e … favor   MDB    
#> 5 doc_5  Conquista importante que beneficia trabalhadores e emp… favor   PSDB   
#> 6 doc_6  Esta reforma é um retrocesso vergonhoso que prejudica … contra  PSOL   
#> # ℹ 8 more rows
…
