…
    ## 

    ## ── Corpus acR ──────────────────────────────────────────────────────────────────

    ## • Documentos: 8

    ## • Metadados: 0 colunas

    ## • Idioma: "pt"

    ## 

    ## # A tibble: 8 × 2
    ##   doc_id text                                                                   
    ##   <chr>  <chr>                                                                  
    ## 1 doc_1  Esta reforma e um retrocesso que prejudica os trabalhadores mais pobre…
    ## 2 doc_2  A aprovacao garante a sustentabilidade fiscal e o futuro das aposentad…
    ## 3 doc_3  O texto substitutivo altera o artigo 201 da Constituicao Federal.      
    ## 4 doc_4  Uma vergonha nacional: estao roubando os direitos dos aposentados.     
    ## 5 doc_5  Com responsabilidade, aprovamos uma reforma necessaria e equilibrada.  
    ## 6 doc_6  Votamos contra esse projeto que ataca os mais vulneraveis.             
    ## # ℹ 2 more rows
…
